<svg width="8" height="16" viewBox="0 0 8 16" fill="none" xmlns="http://www.w3.org/2000/svg">
<path fill-rule="evenodd" clip-rule="evenodd" d="M5.12263 16V7.99906H7.40168L7.7037 5.2419H5.12263L5.1265 3.86191C5.1265 3.1428 5.197 2.75748 6.2628 2.75748H7.68757V0H5.40819C2.6703 0 1.70663 1.33752 1.70663 3.58682V5.24221H0V7.99938H1.70663V16H5.12263Z" fill="white"/>
</svg>
