<svg width="30" height="30" viewBox="0 0 30 30" fill="none" xmlns="http://www.w3.org/2000/svg">
<circle cx="15" cy="15" r="6.2" stroke="#F66A17" stroke-width="1.6"/>
<path d="M20 19L23.5 22.5" stroke="#F66A17" stroke-width="1.7"/>
</svg>
