<svg width="18" height="15" viewBox="0 0 18 15" fill="none" xmlns="http://www.w3.org/2000/svg">
<path d="M8.74001 3.99024L8.77903 4.63903L8.12873 4.55959C5.76166 4.25505 3.6937 3.22228 1.93789 1.48775L1.0795 0.627108L0.858398 1.26266C0.39018 2.67941 0.689318 4.17561 1.66477 5.1819C2.18501 5.738 2.06796 5.81745 1.17054 5.48643C0.858398 5.38051 0.58527 5.30106 0.559258 5.34078C0.468216 5.43347 0.780357 6.63837 1.02748 7.11503C1.36563 7.77708 2.05494 8.42586 2.8093 8.80986L3.44659 9.11436L2.69224 9.12765C1.96391 9.12765 1.93789 9.14086 2.01593 9.41893C2.27605 10.2796 3.30353 11.1931 4.44805 11.5904L5.25442 11.8684L4.5521 12.2921C3.51162 12.9012 2.28905 13.2454 1.06649 13.2719C0.481222 13.2851 0 13.3381 0 13.3779C0 13.5103 1.58673 14.2517 2.51016 14.5431C5.28043 15.4037 8.57095 15.0329 11.0421 13.5632C12.7979 12.5172 14.5537 10.4384 15.3731 8.42586C15.8153 7.35336 16.2575 5.39375 16.2575 4.45366C16.2575 3.84459 16.2965 3.76514 17.0248 3.03691C17.454 2.61321 17.8572 2.14979 17.9353 2.01738C18.0653 1.76581 18.0523 1.76581 17.389 1.99089C16.2835 2.38812 16.1274 2.33515 16.6737 1.73932C17.0769 1.31562 17.5581 0.547664 17.5581 0.322572C17.5581 0.28285 17.363 0.349054 17.1419 0.46822C16.9078 0.600627 16.3876 0.799236 15.9974 0.9184L15.295 1.14349L14.6578 0.706552C14.3066 0.46822 13.8123 0.203407 13.5523 0.123962C12.8889 -0.0614068 11.8745 -0.0349256 11.2762 0.176925C9.65045 0.772757 8.62301 2.30867 8.74001 3.99024Z" fill="#AAAAAA"/>
</svg>
